<?xml version="1.0" encoding="iso-8859-1"?>
<!-- Generator: Adobe Illustrator 19.0.0, SVG Export Plug-In . SVG Version: 6.00 Build 0)  -->
<svg version="1.1" id="Layer_1" xmlns="http://www.w3.org/2000/svg" xmlns:xlink="http://www.w3.org/1999/xlink" x="0px" y="0px"
	 viewBox="0 0 512 512" style="enable-background:new 0 0 512 512;" xml:space="preserve"  stroke="white">
<g>
	<g>
		<path d="M469.333,291.556h-43.998c-9.655-77.084-70.919-138.347-148.002-148.002V129.39c12.75-7.379,21.333-21.154,21.333-36.945
			c0-23.565-19.103-42.667-42.667-42.667s-42.667,19.102-42.667,42.667c0,15.791,8.583,29.567,21.333,36.945v14.164
			c-77.083,9.655-138.347,70.918-148.002,148.002H42.667C19.102,291.556,0,310.659,0,334.222s0,56.889,0,56.889h85.333v28.444
			h48.747c33.431,26.698,75.807,42.667,121.92,42.667s88.489-15.969,121.92-42.667h48.747v-28.444H512c0,0,0-33.326,0-56.889
			S492.898,291.556,469.333,291.556z M64,362.667c-11.782,0-21.333-9.552-21.333-21.333C42.667,329.552,52.218,320,64,320
			s21.333,9.552,21.333,21.333C85.333,353.115,75.782,362.667,64,362.667z M160,362.667c-11.782,0-21.333-9.552-21.333-21.333
			c0-11.782,9.552-21.333,21.333-21.333s21.333,9.552,21.333,21.333C181.333,353.115,171.782,362.667,160,362.667z M256,362.667
			c-11.782,0-21.333-9.552-21.333-21.333c0-11.782,9.552-21.333,21.333-21.333s21.333,9.552,21.333,21.333
			C277.333,353.115,267.782,362.667,256,362.667z M352,362.667c-11.782,0-21.333-9.552-21.333-21.333
			c0-11.782,9.552-21.333,21.333-21.333s21.333,9.552,21.333,21.333C373.333,353.115,363.782,362.667,352,362.667z M327.111,291.556
			v-42.667H184.889v42.667h-55.076C140.005,231.101,192.691,184.889,256,184.889s115.995,46.212,126.187,106.667H327.111z
			 M448,362.667c-11.782,0-21.333-9.552-21.333-21.333c0-11.782,9.552-21.333,21.333-21.333s21.333,9.552,21.333,21.333
			C469.333,353.115,459.782,362.667,448,362.667z"/>
	</g>
</g>
<g>
</g>
<g>
</g>
<g>
</g>
<g>
</g>
<g>
</g>
<g>
</g>
<g>
</g>
<g>
</g>
<g>
</g>
<g>
</g>
<g>
</g>
<g>
</g>
<g>
</g>
<g>
</g>
<g>
</g>
</svg>
